{
	"id": "1e72aa8a-4e28-485a-8a95-4f16b4e3f2de",
	"name": "HAV-api",
	"values": [
		{
			"key": "HAV-api",
			"value": "http://shiftahead.tech/HAV-API/api/",
			"description": "",
			"enabled": true
		}
	],
	"_postman_variable_scope": "environment",
	"_postman_exported_at": "2020-08-21T13:33:42.739Z",
	"_postman_exported_using": "Postman/6.7.4"
}